{
  "title": "Good Health",
  "name": "good-health",
  "version": "0.0.1",
  "description": "Good Health API doc",
  "sampleUrl": false,
  "defaultVersion": "0.0.0",
  "apidoc": "0.3.0",
  "generator": {
    "name": "apidoc",
    "time": "2019-02-25T07:21:47.019Z",
    "url": "http://apidocjs.com",
    "version": "0.17.6"
  }
}
